Source,Target,Code
https://www.example.com/test%C5%AF,http://info.mironet.ch,307
https://www.example.com/test,https://wrong.host.badssl.com/,forward
https://www.example.com/test/(.*),http://localhost:9090/website/$1/baz,forward
https://www.example.com/(.+)/(.*),http://testing-service:80/$1/$2,proxy